Tidying methods for Nural Network Time Series models — tidiers_nnetar • sweep
…
#> # A tibble: 4 × 2
#>   term  estimate
#>   <chr>    <dbl>
#> 1 m            1
#> 2 p            8
#> 3 P            0
#> 4 size         4
sw_glance(fit_nnetar)
#> # A tibble: 1 × 12
#>   model.desc sigma logLik AIC   BIC      ME  RMSE   MAE   MPE  MAPE  MASE
#>   <chr>      <dbl> <lgl>  <lgl> <lgl> <dbl> <dbl> <dbl> <dbl> <dbl> <dbl>
#> 1 NNAR(8,4)   294. NA     NA    NA    0.262  294.  214. -33.5  47.9 0.257
#> # ℹ 1 more variable: ACF1 <dbl>
sw_augment(fit_nnetar)
#> # A tibble: 114 × 4
#>    index .actual .fitted .resid
#>    <dbl>   <dbl>   <dbl>  <dbl>
#>  1  1821     269     NA     NA 
#>  2  1822     321     NA     NA 
#>  3  1823     585     NA     NA 
#>  4  1824     871     NA     NA 
#>  5  1825    1475     NA     NA 
#>  6  1826    2821     NA     NA 
#>  7  1827    3928     NA     NA 
#>  8  1828    5943     NA     NA 
#>  9  1829    4950   4717.   233.
#> 10  1830    2577   2395.   182.
#> # ℹ 104 more rows
…
