…
#>   <chr>                <dbl>
#> 1 lambda               1.000
#> 2 alpha                1.52 
#> 3 beta                NA    
#> 4 damping.parameter   NA    
#> 5 gamma.values        NA    
#> 6 ar.coefficients     NA    
#> 7 ma.coefficients     -0.666
sw_glance(fit_bats)
#> # A tibble: 1 × 12
#>   model.desc sigma logLik   AIC   BIC    ME  RMSE   MAE   MPE  MAPE  MASE   ACF1
#>   <chr>      <dbl>  <dbl> <dbl> <dbl> <dbl> <dbl> <dbl> <dbl> <dbl> <dbl>  <dbl>
#> 1 BATS(1, {…  3.47   709.  727.  732. 0.217  3.47  2.62 0.261  2.13 0.579 0.0445
sw_augment(fit_bats)
#> # A tibble: 100 × 4
#>    index .actual .fitted  .resid
#>    <int>   <dbl>   <dbl>   <dbl>
#>  1     1      88   101.  -12.7  
#>  2     2      84    75.6   8.38 
#>  3     3      85    85.5  -0.453
#>  4     4      85    84.1   0.867
#>  5     5      84    84.8  -0.818
#>  6     6      85    82.7   2.30 
#>  7     7      83    86.3  -3.29 
#>  8     8      85    80.2   4.78 
#>  9     9      88    88.1  -0.125
#> 10    10      89    89.3  -0.284
#> # ℹ 90 more rows
```
