…
[`stats::stl()`](https://rdrr.io/r/stats/stl.html)

## Examples

``` r
library(dplyr)
library(forecast)
library(sweep)

fit_stl <- USAccDeaths %>%
    stl(s.window = "periodic")

sw_tidy_decomp(fit_stl)
#> # A tibble: 72 × 6
#>    index     observed  season trend remainder seasadj
#>    <yearmon>    <dbl>   <dbl> <dbl>     <dbl>   <dbl>
#>  1 Jan 1973      9007  -820.  9935.    -108.    9827.
#>  2 Feb 1973      8106 -1559.  9881.    -216.    9665.
#>  3 Mar 1973      8928  -760.  9827.    -139.    9688.
#>  4 Apr 1973      9137  -530.  9766.     -98.2   9667.
#>  5 May 1973     10017   335.  9704.     -22.0   9682.
#>  6 Jun 1973     10826   815.  9637.     374.   10011.
#>  7 Jul 1973     11317  1682.  9569.      65.9   9635.
#>  8 Aug 1973     10744   982.  9500.     262.    9762.
#>  9 Sep 1973      9713   -62.8 9431.     345.    9776.
#> 10 Oct 1973      9938   232.  9343.     363.    9706.
#> # ℹ 62 more rows
```
