…
#> # A tibble: 5 × 2
#>   term  estimate
#>   <chr>    <dbl>
#> 1 alpha   1.000 
#> 2 beta    0.997 
#> 3 phi     0.815 
#> 4 l      90.4   
#> 5 b      -0.0173
sw_glance(fit_ets)
#> # A tibble: 1 × 12
#>   model.desc  sigma logLik   AIC   BIC    ME  RMSE   MAE   MPE  MAPE  MASE  ACF1
#>   <chr>       <dbl>  <dbl> <dbl> <dbl> <dbl> <dbl> <dbl> <dbl> <dbl> <dbl> <dbl>
#> 1 ETS(A,Ad,N)  3.50  -353.  718.  733. 0.224  3.41  2.76 0.263  2.16 0.610 0.231
sw_augment(fit_ets)
#> # A tibble: 100 × 4
#>    index .actual .fitted .resid
#>    <int>   <dbl>   <dbl>  <dbl>
#>  1     1      88    90.3 -2.34 
#>  2     2      84    86.1 -2.09 
#>  3     3      85    80.7  4.25 
#>  4     4      85    85.8 -0.803
#>  5     5      84    85.0 -1.00 
#>  6     6      85    83.2  1.81 
#>  7     7      83    85.8 -2.81 
#>  8     8      85    81.4  3.62 
#>  9     9      88    86.6  1.38 
#> 10    10      89    90.4 -1.44 
#> # ℹ 90 more rows
sw_tidy_decomp(fit_ets)
#> # A tibble: 101 × 4
#>    index observed level    slope
#>    <dbl>    <dbl> <dbl>    <dbl>
#>  1     0       NA  90.4 -0.0173 
#>  2     1       88  88.0 -2.34   
#>  3     2       84  84.0 -3.99   
#>  4     3       85  85.0  0.986  
#>  5     4       85  85.0  0.00312
#>  6     5       84  84.0 -0.997  
#>  7     6       85  85.0  0.994  
#>  8     7       83  83.0 -1.99   
#>  9     8       85  85.0  1.99   
#> 10     9       88  88.0  3.00   
#> # ℹ 91 more rows
```
