Introduction to sweep • sweep
…
Forecasting Sales of Beer, Wine, and Distilled Alcohol Beverages

We’ll use the tidyquant package to get the US alcohol sales, which comes from the FRED data base (the origin is the US Bureau of the Census, one of the 80+ data sources FRED connects to). The FRED code is “S4248SM144NCEN” and the data set can be found here.

alcohol_sales_tbl <- tq_get("S4248SM144NCEN", 
                            get  = "economic.data", 
                            from = "2007-01-01",
                            to   = "2016-12-31")
alcohol_sales_tbl

## # A tibble: 120 x 2
##          date price
##        <date> <int>
##  1 2007-01-01  6627
##  2 2007-02-01  6743
##  3 2007-03-01  8195
##  4 2007-04-01  7828
##  5 2007-05-01  9570
##  6 2007-06-01  9484
##  7 2007-07-01  8608
##  8 2007-08-01  9543
##  9 2007-09-01  8123
## 10 2007-10-01  9649
## # ... with 110 more rows
…
## # A tibble: 1 x 12
##   model.desc      sigma    logLik     AIC      BIC        ME     RMSE
##        <chr>      <dbl>     <dbl>   <dbl>    <dbl>     <dbl>    <dbl>
## 1 ETS(M,A,M) 0.04227481 -1012.805 2059.61 2106.997 -40.84778 427.9228
## # ... with 5 more variables: MAE <dbl>, MPE <dbl>, MAPE <dbl>, MASE <dbl>,
## #   ACF1 <dbl>

sw_augment

sw_augment() returns the actual, fitted and residual values.

augment_fit_ets <- sw_augment(fit_ets)
augment_fit_ets

## # A tibble: 120 x 4
##            index .actual  .fitted       .resid
##    <S3: yearmon>   <dbl>    <dbl>        <dbl>
##  1      Jan 2007    6627 6608.634  0.002779153
##  2      Feb 2007    6743 7208.570 -0.064585640
##  3      Mar 2007    8195 8374.630 -0.021449283
##  4      Apr 2007    7828 8487.572 -0.077710309
##  5      May 2007    9570 9199.798  0.040240284
##  6      Jun 2007    9484 9670.953 -0.019331429
##  7      Jul 2007    8608 8715.021 -0.012280119
##  8      Aug 2007    9543 9065.848  0.052631819
##  9      Sep 2007    8123 8733.843 -0.069939764
## 10      Oct 2007    9649 9118.519  0.058176260
## # ... with 110 more rows
…
sw_tidy_decomp

sw_tidy_decomp() returns the decomposition of the ETS model.

decomp_fit_ets <- sw_tidy_decomp(fit_ets)
decomp_fit_ets 

## # A tibble: 121 x 5
##            index observed    level    slope    season
##    <S3: yearmon>    <dbl>    <dbl>    <dbl>     <dbl>
##  1      Dec 2006       NA 8570.668 38.91214 1.1843861
##  2      Jan 2007     6627 8612.002 38.96039 0.7675909
##  3      Feb 2007     6743 8594.407 37.83367 0.8332625
##  4      Mar 2007     8195 8613.499 37.46029 0.9701550
##  5      Apr 2007     7828 8582.912 36.10461 0.9811056
##  6      May 2007     9570 8654.123 36.80402 1.0673881
##  7      Jun 2007     9484 8673.921 36.46522 1.1127621
##  8      Jul 2007     8608 8699.559 36.24952 1.0005309
##  9      Aug 2007     9543 8782.348 37.17671 1.0377856
## 10      Sep 2007     8123 8757.088 35.93281 0.9902779
## # ... with 111 more rows
…
Step 3: Forecasting the model

Next we forecast the ETS model using the forecast() function. The returned forecast object isn’t in a “tidy” format (i.e. data frame). This is where the sw_sweep() function helps.

fcast_ets <- fit_ets %>%
    forecast(h = 12) 

Step 4: Tidy the forecast object

We’ll use the sw_sweep() function to coerce a forecast into a “tidy” data frame. The sw_sweep() function then coerces the forecast object into a tibble that can be sent to ggplot for visualization. Let’s inspect the result.

sw_sweep(fcast_ets, fitted = TRUE)

## # A tibble: 252 x 7
##            index    key price lo.80 lo.95 hi.80 hi.95
##    <S3: yearmon>  <chr> <dbl> <dbl> <dbl> <dbl> <dbl>
##  1      Jan 2007 actual  6627    NA    NA    NA    NA
##  2      Feb 2007 actual  6743    NA    NA    NA    NA
##  3      Mar 2007 actual  8195    NA    NA    NA    NA
##  4      Apr 2007 actual  7828    NA    NA    NA    NA
##  5      May 2007 actual  9570    NA    NA    NA    NA
##  6      Jun 2007 actual  9484    NA    NA    NA    NA
##  7      Jul 2007 actual  8608    NA    NA    NA    NA
##  8      Aug 2007 actual  9543    NA    NA    NA    NA
##  9      Sep 2007 actual  8123    NA    NA    NA    NA
## 10      Oct 2007 actual  9649    NA    NA    NA    NA
## # ... with 242 more rows
…
