Forecasting Time Series Groups in the tidyverse • sweep
…
## Warning: package 'zoo' was built under R version 3.6.2

library(timetk)
library(sweep)
library(forecast)

## Warning: package 'forecast' was built under R version 3.6.2

Bike Sales

We’ll use the bike sales data set, bike_sales, provided with the sweep package for this tutorial. The bike_sales data set is a fictional daily order history that spans 2011 through 2015. It simulates a sales database that is typical of a business. The customers are the “bike shops” and the products are the “models”.

bike_sales

## # A tibble: 15,644 x 17
##    order.date order.id order.line quantity price price.ext customer.id
##    <date>        <dbl>      <int>    <dbl> <dbl>     <dbl>       <dbl>
##  1 2011-01-07        1          1        1  6070      6070           2
##  2 2011-01-07        1          2        1  5970      5970           2
##  3 2011-01-10        2          1        1  2770      2770          10
##  4 2011-01-10        2          2        1  5970      5970          10
##  5 2011-01-10        3          1        1 10660     10660           6
##  6 2011-01-10        3          2        1  3200      3200           6
##  7 2011-01-10        3          3        1 12790     12790           6
##  8 2011-01-10        3          4        1  5330      5330           6
##  9 2011-01-10        3          5        1  1570      1570           6
## 10 2011-01-11        4          1        1  4800      4800          22
## # … with 15,634 more rows, and 10 more variables: bikeshop.name <chr>,
## #   bikeshop.city <chr>, bikeshop.state <chr>, latitude <dbl>, longitude <dbl>,
## #   product.id <dbl>, model <chr>, category.primary <chr>,
## #   category.secondary <chr>, frame <chr>

We’ll analyse the monthly sales trends for the bicycle manufacturer. Let’s transform the data set by aggregating by month.

bike_sales_monthly <- bike_sales %>%
    mutate(month = month(order.date, label = TRUE),
           year  = year(order.date)) %>%
    group_by(year, month) %>%
    summarise(total.qty = sum(quantity))

## `summarise()` regrouping output by 'year' (override with `.groups` argument)

bike_sales_monthly

## # A tibble: 60 x 3
## # Groups:   year [5]
##     year month total.qty
##    <dbl> <ord>     <dbl>
##  1  2011 Jan         440
##  2  2011 Feb        2017
##  3  2011 Mar        1584
##  4  2011 Apr        4478
##  5  2011 May        4112
##  6  2011 Jun        4251
##  7  2011 Jul        1550
##  8  2011 Aug        1470
##  9  2011 Sep         975
## 10  2011 Oct         697
## # … with 50 more rows
…
Performing Forecasts on Groups

First, we need to get the data organized into groups by month of the year. We’ll create a new “order.month” date using zoo::as.yearmon() that captures the year and month information from the “order.date” and then passing this to lubridate::as_date() to convert to date format.

monthly_qty_by_cat2 <- bike_sales %>%
    mutate(order.month = as_date(as.yearmon(order.date))) %>%
    group_by(category.secondary, order.month) %>%
    summarise(total.qty = sum(quantity))

## `summarise()` regrouping output by 'category.secondary' (override with `.groups` argument)

monthly_qty_by_cat2

## # A tibble: 538 x 3
## # Groups:   category.secondary [9]
##    category.secondary order.month total.qty
##    <chr>              <date>          <dbl>
##  1 Cross Country Race 2011-01-01        122
##  2 Cross Country Race 2011-02-01        489
##  3 Cross Country Race 2011-03-01        505
##  4 Cross Country Race 2011-04-01        343
##  5 Cross Country Race 2011-05-01        263
##  6 Cross Country Race 2011-06-01        735
##  7 Cross Country Race 2011-07-01        183
##  8 Cross Country Race 2011-08-01         66
##  9 Cross Country Race 2011-09-01         97
## 10 Cross Country Race 2011-10-01        189
## # … with 528 more rows
…
At this point, we can do some model inspection with the sweep tidiers.

sw_tidy

To get the model parameters for each nested list, we can combine sw_tidy within the mutate and map combo. The only real difference is now we unnest the generated column (named “tidy”). Last, because it’s easier to compare the model parameters side by side, we add one additional call to spread() from the tidyr package.

monthly_qty_by_cat2_fit %>%
    mutate(tidy = map(fit.ets, sw_tidy)) %>%
    unnest(tidy) %>%
    spread(key = category.secondary, value = estimate)

## # A tibble: 128 x 13
##    data  data.ts fit.ets term  `Cross Country … Cyclocross `Elite Road`
##    <lis> <list>  <list>  <chr>            <dbl>      <dbl>        <dbl>
##  1 <tib… <ts [6… <ets>   alpha         0.0398           NA           NA
##  2 <tib… <ts [6… <ets>   gamma         0.000101         NA           NA
##  3 <tib… <ts [6… <ets>   l           321.               NA           NA
##  4 <tib… <ts [6… <ets>   s0            0.503            NA           NA
##  5 <tib… <ts [6… <ets>   s1            1.10             NA           NA
##  6 <tib… <ts [6… <ets>   s10           0.643            NA           NA
##  7 <tib… <ts [6… <ets>   s2            0.375            NA           NA
##  8 <tib… <ts [6… <ets>   s3            1.12             NA           NA
##  9 <tib… <ts [6… <ets>   s4            0.630            NA           NA
## 10 <tib… <ts [6… <ets>   s5            2.06             NA           NA
## # … with 118 more rows, and 6 more variables: `Endurance Road` <dbl>, `Fat
## #   Bike` <dbl>, `Over Mountain` <dbl>, Sport <dbl>, Trail <dbl>,
## #   Triathalon <dbl>
…
sw_augment

The augmented fitted and residual values can be achieved in much the same manner. This returns nine groups data. Note that we pass timetk_idx = TRUE to return the date format times as opposed to the regular (yearmon or numeric) time series.

augment_fit_ets <- monthly_qty_by_cat2_fit %>%
    mutate(augment = map(fit.ets, sw_augment, timetk_idx = TRUE, rename_index = "date")) %>%
    unnest(augment)

augment_fit_ets

## # A tibble: 538 x 8
## # Groups:   category.secondary [9]
##    category.seconda… data    data.ts  fit.ets date       .actual .fitted  .resid
##    <chr>             <list>  <list>   <list>  <date>       <dbl>   <dbl>   <dbl>
##  1 Cross Country Ra… <tibbl… <ts [60… <ets>   2011-01-01     122    373. -0.673 
##  2 Cross Country Ra… <tibbl… <ts [60… <ets>   2011-02-01     489    201.  1.43  
##  3 Cross Country Ra… <tibbl… <ts [60… <ets>   2011-03-01     505    465.  0.0864
##  4 Cross Country Ra… <tibbl… <ts [60… <ets>   2011-04-01     343    161.  1.12  
##  5 Cross Country Ra… <tibbl… <ts [60… <ets>   2011-05-01     263    567. -0.537 
##  6 Cross Country Ra… <tibbl… <ts [60… <ets>   2011-06-01     735    296.  1.48  
##  7 Cross Country Ra… <tibbl… <ts [60… <ets>   2011-07-01     183    741. -0.753 
##  8 Cross Country Ra… <tibbl… <ts [60… <ets>   2011-08-01      66    220. -0.700 
##  9 Cross Country Ra… <tibbl… <ts [60… <ets>   2011-09-01      97    381. -0.745 
## 10 Cross Country Ra… <tibbl… <ts [60… <ets>   2011-10-01     189    123.  0.534 
## # … with 528 more rows
…
sw_tidy_decomp

We can create decompositions using the same procedure with sw_tidy_decomp() and the mutate and map combo.

monthly_qty_by_cat2_fit %>%
    mutate(decomp = map(fit.ets, sw_tidy_decomp, timetk_idx = TRUE, rename_index = "date")) %>%
    unnest(decomp)

## # A tibble: 538 x 9
## # Groups:   category.secondary [9]
##    category.second… data  data.ts fit.ets date       observed level season slope
##    <chr>            <lis> <list>  <list>  <date>        <dbl> <dbl>  <dbl> <dbl>
##  1 Cross Country R… <tib… <ts [6… <ets>   2011-01-01      122  313.  1.16     NA
##  2 Cross Country R… <tib… <ts [6… <ets>   2011-02-01      489  331.  0.643    NA
##  3 Cross Country R… <tib… <ts [6… <ets>   2011-03-01      505  332.  1.41     NA
##  4 Cross Country R… <tib… <ts [6… <ets>   2011-04-01      343  347.  0.487    NA
##  5 Cross Country R… <tib… <ts [6… <ets>   2011-05-01      263  339.  1.64     NA
##  6 Cross Country R… <tib… <ts [6… <ets>   2011-06-01      735  359.  0.873    NA
##  7 Cross Country R… <tib… <ts [6… <ets>   2011-07-01      183  348.  2.06     NA
##  8 Cross Country R… <tib… <ts [6… <ets>   2011-08-01       66  339.  0.630    NA
##  9 Cross Country R… <tib… <ts [6… <ets>   2011-09-01       97  329.  1.12     NA
## 10 Cross Country R… <tib… <ts [6… <ets>   2011-10-01      189  336.  0.375    NA
## # … with 528 more rows
…
Step 4: Tidy the forecast

Next, we can apply sw_sweep to get the forecast in a nice “tidy” data frame. We use the argument fitted = FALSE to remove the fitted values from the forecast (leave off if fitted values are desired). We set timetk_idx = TRUE to use dates instead of numeric values for the index. We’ll use unnest() to drop the left over list-columns and return an unnested data frame.

monthly_qty_by_cat2_fcast_tidy <- monthly_qty_by_cat2_fcast %>%
    mutate(sweep = map(fcast.ets, sw_sweep, fitted = FALSE, timetk_idx = TRUE)) %>%
    unnest(sweep)
monthly_qty_by_cat2_fcast_tidy

## # A tibble: 646 x 12
## # Groups:   category.secondary [9]
##    category.second… data  data.ts fit.ets fcast.ets index      key   total.qty
##    <chr>            <lis> <list>  <list>  <list>    <date>     <chr>     <dbl>
##  1 Cross Country R… <tib… <ts [6… <ets>   <forecas… 2011-01-01 actu…       122
##  2 Cross Country R… <tib… <ts [6… <ets>   <forecas… 2011-02-01 actu…       489
##  3 Cross Country R… <tib… <ts [6… <ets>   <forecas… 2011-03-01 actu…       505
##  4 Cross Country R… <tib… <ts [6… <ets>   <forecas… 2011-04-01 actu…       343
##  5 Cross Country R… <tib… <ts [6… <ets>   <forecas… 2011-05-01 actu…       263
##  6 Cross Country R… <tib… <ts [6… <ets>   <forecas… 2011-06-01 actu…       735
##  7 Cross Country R… <tib… <ts [6… <ets>   <forecas… 2011-07-01 actu…       183
##  8 Cross Country R… <tib… <ts [6… <ets>   <forecas… 2011-08-01 actu…        66
##  9 Cross Country R… <tib… <ts [6… <ets>   <forecas… 2011-09-01 actu…        97
## 10 Cross Country R… <tib… <ts [6… <ets>   <forecas… 2011-10-01 actu…       189
## # … with 636 more rows, and 4 more variables: lo.80 <dbl>, lo.95 <dbl>,
## #   hi.80 <dbl>, hi.95 <dbl>
…
