Forecasting Using Multiple Models • sweep
…
## Warning: package 'forecast' was built under R version 3.6.2

Forecasting Gasoline Prices

To start, let’s get some data from the FRED data base using tidyquant. We’ll use tq_get() to retrieve the Gasoline Prices from 1990 through today (2020-07-10).

gas_prices_monthly_raw <- tq_get(
    x    = "GASREGCOVM",
    get  = "economic.data",
    from = "1990-01-01",
    to   = "2016-12-31")
gas_prices_monthly_raw

## # A tibble: 316 x 3
##    symbol     date       price
##    <chr>      <date>     <dbl>
##  1 GASREGCOVM 1990-09-01  1.26
##  2 GASREGCOVM 1990-10-01  1.34
##  3 GASREGCOVM 1990-11-01  1.32
##  4 GASREGCOVM 1990-12-01 NA   
##  5 GASREGCOVM 1991-01-01 NA   
##  6 GASREGCOVM 1991-02-01  1.09
##  7 GASREGCOVM 1991-03-01  1.04
##  8 GASREGCOVM 1991-04-01  1.08
##  9 GASREGCOVM 1991-05-01  1.13
## 10 GASREGCOVM 1991-06-01  1.13
## # … with 306 more rows
…
Monthly periodicity might be a bit granular for model fitting. We can easily switch periodicity to quarterly using tq_transmute() from the tidyquant package along with the periodicity aggregation function to.period from the xts package. We’ll convert the date to yearqtr class which is regularized.

gas_prices_quarterly <- gas_prices_monthly %>%
    tq_transmute(mutate_fun = to.period, period = "quarters")
gas_prices_quarterly

## # A tibble: 106 x 2
##    date       price
##    <date>     <dbl>
##  1 1990-09-01  1.26
##  2 1990-12-01  1.32
##  3 1991-03-01  1.04
##  4 1991-06-01  1.13
##  5 1991-09-01  1.11
##  6 1991-12-01  1.08
##  7 1992-03-01  1.01
##  8 1992-06-01  1.14
##  9 1992-09-01  1.12
## 10 1992-12-01  1.08
## # … with 96 more rows
…
## # A tibble: 3 x 5
##   f          params           fit        fcast      sweep             
##   <chr>      <list>           <list>     <list>     <list>            
## 1 auto.arima <named list [1]> <fr_ARIMA> <forecast> <tibble [112 × 7]>
## 2 ets        <named list [2]> <ets>      <forecast> <tibble [112 × 7]>
## 3 bats       <named list [1]> <bats>     <forecast> <tibble [112 × 7]>

We can unnest the “sweep” column to get the results of all three models.

models_tbl_fcast_tidy %>%
    unnest(sweep)

## # A tibble: 336 x 11
##    f       params   fit    fcast  date       key   price lo.80 lo.95 hi.80 hi.95
##    <chr>   <list>   <list> <list> <date>     <chr> <dbl> <dbl> <dbl> <dbl> <dbl>
##  1 auto.a… <named … <fr_A… <fore… 1990-09-01 actu…  1.26    NA    NA    NA    NA
##  2 auto.a… <named … <fr_A… <fore… 1990-12-01 actu…  1.32    NA    NA    NA    NA
##  3 auto.a… <named … <fr_A… <fore… 1991-03-01 actu…  1.04    NA    NA    NA    NA
##  4 auto.a… <named … <fr_A… <fore… 1991-06-01 actu…  1.13    NA    NA    NA    NA
##  5 auto.a… <named … <fr_A… <fore… 1991-09-01 actu…  1.11    NA    NA    NA    NA
##  6 auto.a… <named … <fr_A… <fore… 1991-12-01 actu…  1.08    NA    NA    NA    NA
##  7 auto.a… <named … <fr_A… <fore… 1992-03-01 actu…  1.01    NA    NA    NA    NA
##  8 auto.a… <named … <fr_A… <fore… 1992-06-01 actu…  1.14    NA    NA    NA    NA
##  9 auto.a… <named … <fr_A… <fore… 1992-09-01 actu…  1.12    NA    NA    NA    NA
## 10 auto.a… <named … <fr_A… <fore… 1992-12-01 actu…  1.08    NA    NA    NA    NA
## # … with 326 more rows
…
