Tidy forecast objects — sw_sweep • sweep
…
# ETS forecasts
USAccDeaths %>%
    ets() %>%
    forecast(level = c(80, 95, 99)) %>%
    sw_sweep()
#> # A tibble: 96 x 9
#>    index     key    value lo.80 lo.95 lo.99 hi.80 hi.95 hi.99
#>    <yearmon> <chr>  <dbl> <dbl> <dbl> <dbl> <dbl> <dbl> <dbl>
#>  1 Jan 1973  actual  9007    NA    NA    NA    NA    NA    NA
#>  2 Feb 1973  actual  8106    NA    NA    NA    NA    NA    NA
#>  3 Mar 1973  actual  8928    NA    NA    NA    NA    NA    NA
#>  4 Apr 1973  actual  9137    NA    NA    NA    NA    NA    NA
#>  5 May 1973  actual 10017    NA    NA    NA    NA    NA    NA
#>  6 Jun 1973  actual 10826    NA    NA    NA    NA    NA    NA
#>  7 Jul 1973  actual 11317    NA    NA    NA    NA    NA    NA
#>  8 Aug 1973  actual 10744    NA    NA    NA    NA    NA    NA
#>  9 Sep 1973  actual  9713    NA    NA    NA    NA    NA    NA
#> 10 Oct 1973  actual  9938    NA    NA    NA    NA    NA    NA
#> # … with 86 more rows
…
