Tidying methods for HoltWinters modeling of time series — tidiers_HoltWinters • sweep
…
#> 10 s5      259.    
#> 11 s6      674.    
#> 12 s7     1771.    
#> 13 s8     1031.    
#> 14 s9      211.    
#> 15 s10     549.    
#> 16 s11     128.    
#> 17 s12     441.    
sw_glance(fit_hw)
#> # A tibble: 1 x 12
#>   model.desc sigma logLik AIC   BIC      ME  RMSE   MAE   MPE  MAPE  MASE   ACF1
#>   <chr>      <dbl> <lgl>  <lgl> <lgl> <dbl> <dbl> <dbl> <dbl> <dbl> <dbl>  <dbl>
#> 1 HoltWinte… 2939. NA     NA    NA     61.4  379.  274. 0.727  3.21 0.626 0.0569
sw_augment(fit_hw)
#> # A tibble: 72 x 4
#>    index     .actual .fitted .resid
#>    <yearmon>   <dbl>   <dbl>  <dbl>
#>  1 Jan 1973     9007      NA     NA
#>  2 Feb 1973     8106      NA     NA
#>  3 Mar 1973     8928      NA     NA
#>  4 Apr 1973     9137      NA     NA
#>  5 May 1973    10017      NA     NA
#>  6 Jun 1973    10826      NA     NA
#>  7 Jul 1973    11317      NA     NA
#>  8 Aug 1973    10744      NA     NA
#>  9 Sep 1973     9713      NA     NA
#> 10 Oct 1973     9938      NA     NA
#> # … with 62 more rows
sw_tidy_decomp(fit_hw)
#> # A tibble: 72 x 6
#>    index     observed season trend remainder seasadj
#>    <yearmon>    <dbl>  <dbl> <dbl>     <dbl>   <dbl>
#>  1 Jan 1973      9007     NA    NA        NA      NA
#>  2 Feb 1973      8106     NA    NA        NA      NA
#>  3 Mar 1973      8928     NA    NA        NA      NA
#>  4 Apr 1973      9137     NA    NA        NA      NA
#>  5 May 1973     10017     NA    NA        NA      NA
#>  6 Jun 1973     10826     NA    NA        NA      NA
#>  7 Jul 1973     11317     NA    NA        NA      NA
#>  8 Aug 1973     10744     NA    NA        NA      NA
#>  9 Sep 1973      9713     NA    NA        NA      NA
#> 10 Oct 1973      9938     NA    NA        NA      NA
#> # … with 62 more rows
…
