Tidying methods for ARIMA modeling of time series — tidiers_arima • sweep
…
sw_tidy(fit_arima)
#> # A tibble: 2 x 2
#>   term  estimate
#>   <chr>    <dbl>
#> 1 ar1      0.650
#> 2 ma1      0.526
sw_glance(fit_arima)
#> # A tibble: 1 x 12
#>   model.desc sigma logLik   AIC   BIC    ME  RMSE   MAE   MPE  MAPE  MASE
#>   <chr>      <dbl>  <dbl> <dbl> <dbl> <dbl> <dbl> <dbl> <dbl> <dbl> <dbl>
#> 1 ARIMA(1,1…  3.16  -254.  514.  522. 0.304  3.11  2.41 0.281  1.92 0.532
#> # … with 1 more variable: ACF1 <dbl>
sw_augment(fit_arima)
#> # A tibble: 100 x 4
#>    index .actual .fitted  .resid
#>    <int>   <dbl>   <dbl>   <dbl>
#>  1     1      88    87.9  0.0880
#>  2     2      84    86.2 -2.17  
#>  3     3      85    81.1  3.86  
#>  4     4      85    87.5 -2.45  
#>  5     5      84    83.7  0.259 
#>  6     6      85    83.5  1.51  
#>  7     7      83    86.4 -3.44  
#>  8     8      85    79.9  5.11  
#>  9     9      88    89.0 -0.985 
#> 10    10      89    89.4 -0.433 
#> # … with 90 more rows
…
