Tidying methods for StructTS (Error, Trend, Seasonal) / exponential smoothing modeling of time series — tidiers_StructTS • sweep
…
#> 2 slope       13.0
#> 3 epsilon      0  
sw_glance(fit_StructTS)
#> # A tibble: 1 × 12
#>   model.d…¹ sigma logLik   AIC   BIC      ME  RMSE   MAE   MPE  MAPE  MASE  ACF1
#>   <chr>     <dbl>  <dbl> <dbl> <dbl>   <dbl> <dbl> <dbl> <dbl> <dbl> <dbl> <dbl>
#> 1 Local li… 0.995  -277.  559.  564. -0.0200  3.59  2.96 0.140  2.32 0.654 0.156
#> # … with abbreviated variable name ¹​model.desc
sw_augment(fit_StructTS)
#> Warning: `select_()` was deprecated in dplyr 0.7.0.
#> ℹ Please use `select()` instead.
#> ℹ The deprecated feature was likely used in the sweep package.
#>   Please report the issue at
#>   <https://github.com/business-science/sweep/issues>.
#> # A tibble: 100 × 4
#>    index .actual .fitted .resid
#>    <int>   <dbl>   <dbl>  <dbl>
#>  1     1      88    88     0   
#>  2     2      84    88.0  -4.00
#>  3     3      85    80     5   
#>  4     4      85    86    -1   
#>  5     5      84    85    -1   
#>  6     6      85    83     2   
#>  7     7      83    86    -3   
#>  8     8      85    81     4   
#>  9     9      88    87     1   
#> 10    10      89    91    -2   
#> # … with 90 more rows
…
