Tidying methods for BATS and TBATS modeling of time series — tidiers_bats • sweep
…
#> 2             alpha  1.5220473
#> 3              beta         NA
#> 4 damping.parameter         NA
#> 5      gamma.values         NA
#> 6   ar.coefficients         NA
#> 7   ma.coefficients -0.6659469
sw_glance(fit_bats)
#> # A tibble: 1 x 12
#>             model.desc    sigma   logLik      AIC      BIC       ME     RMSE
#>                  <chr>    <dbl>    <dbl>    <dbl>    <dbl>    <dbl>    <dbl>
#> 1 BATS(1, {2,1}, -, -) 3.467163 709.1858 727.1858 732.3962 0.217214 3.467189
#> # ... with 5 more variables: MAE <dbl>, MPE <dbl>, MAPE <dbl>, MASE <dbl>,
#> #   ACF1 <dbl>
sw_augment(fit_bats)
#> # A tibble: 100 x 4
#>    index .actual   .fitted      .resid
#>    <int>   <dbl>     <dbl>       <dbl>
#>  1     1      88 100.68293 -12.6829339
#>  2     2      84  75.62202   8.3779788
#>  3     3      85  85.45333  -0.4533316
#>  4     4      85  84.13313   0.8668650
#>  5     5      84  84.81769  -0.8176871
#>  6     6      85  82.69644   2.3035611
#>  7     7      83  86.28782  -3.2878221
#>  8     8      85  80.21738   4.7826152
#>  9     9      88  88.12487  -0.1248740
#> 10    10      89  89.28448  -0.2844818
#> # ... with 90 more rows
…
