Tidying methods for Nural Network Time Series models — tidiers_nnetar • sweep
…
sw_tidy(fit_nnetar)
#> # A tibble: 4 x 2
#>   term  estimate
#>   <chr>    <dbl>
#> 1 m            1
#> 2 p            8
#> 3 P            0
#> 4 size         4
sw_glance(fit_nnetar)
#> # A tibble: 1 x 12
#>   model.desc sigma logLik AIC   BIC      ME  RMSE   MAE   MPE  MAPE  MASE   ACF1
#>   <chr>      <dbl> <lgl>  <lgl> <lgl> <dbl> <dbl> <dbl> <dbl> <dbl> <dbl>  <dbl>
#> 1 NNAR(8,4)   294. NA     NA    NA    0.127  294.  216. -40.4  54.1 0.260 0.0290
sw_augment(fit_nnetar)
#> # A tibble: 114 x 4
#>    index .actual .fitted .resid
#>    <dbl>   <dbl>   <dbl>  <dbl>
#>  1  1821     269     NA    NA  
#>  2  1822     321     NA    NA  
#>  3  1823     585     NA    NA  
#>  4  1824     871     NA    NA  
#>  5  1825    1475     NA    NA  
#>  6  1826    2821     NA    NA  
#>  7  1827    3928     NA    NA  
#>  8  1828    5943     NA    NA  
#>  9  1829    4950   4560.  390. 
#> 10  1830    2577   2549.   28.4
#> # i 104 more rows
…
