…
## Forecasting Monthly Bike Sales Revenue

We’ll use the `bike_sales` data set that ships with `sweep` and
aggregate it to monthly revenue. This gives us a local, reproducible
series with both seasonality and trend.

``` r
monthly_sales_tbl <- bike_sales %>%
    dplyr::mutate(date = lubridate::floor_date(order.date, unit = "month")) %>%
    dplyr::group_by(date) %>%
    dplyr::summarise(price = sum(price.ext), .groups = "drop")
monthly_sales_tbl
```

    ## # A tibble: 60 × 2
    ##    date          price
    ##    <date>        <dbl>
    ##  1 2011-01-01  1165365
    ##  2 2011-02-01  5794945
    ##  3 2011-03-01  6811655
    ##  4 2011-04-01 14097770
    ##  5 2011-05-01  8488650
    ##  6 2011-06-01 14725405
    ##  7 2011-07-01  6382930
    ##  8 2011-08-01  4456670
    ##  9 2011-09-01  3505000
    ## 10 2011-10-01  1548640
    ## # ℹ 50 more rows
…
#### sw_augment

[`sw_augment()`](https://business-science.github.io/sweep/reference/sw_augment.md)
returns the actual, fitted and residual values.

``` r
augment_fit_ets <- sw_augment(fit_ets)
augment_fit_ets
```

    ## # A tibble: 60 × 4
    ##    index      .actual   .fitted  .resid
    ##    <yearmon>    <dbl>     <dbl>   <dbl>
    ##  1 Jan 2011   1165365  4872020. -0.761 
    ##  2 Feb 2011   5794945  6731901. -0.139 
    ##  3 Mar 2011   6811655 13836628. -0.508 
    ##  4 Apr 2011  14097770  9574494.  0.472 
    ##  5 May 2011   8488650  7790402.  0.0896
    ##  6 Jun 2011  14725405  8922332.  0.650 
    ##  7 Jul 2011   6382930  9013625. -0.292 
    ##  8 Aug 2011   4456670  4091929.  0.0891
    ##  9 Sep 2011   3505000  5944932. -0.410 
    ## 10 Oct 2011   1548640  4933041. -0.686 
    ## # ℹ 50 more rows
…
#### sw_tidy_decomp

[`sw_tidy_decomp()`](https://business-science.github.io/sweep/reference/sw_tidy_decomp.md)
returns the decomposition of the ETS model.

``` r
decomp_fit_ets <- sw_tidy_decomp(fit_ets)
decomp_fit_ets 
```

    ## # A tibble: 61 × 4
    ##    index     observed    level season
    ##    <yearmon>    <dbl>    <dbl>  <dbl>
    ##  1 Dec 2010        NA 7083284.  0.595
    ##  2 Jan 2011   1165365 6986708.  0.688
    ##  3 Feb 2011   5794945 6969282.  0.964
    ##  4 Mar 2011   6811655 6905871.  1.99 
    ##  5 Apr 2011  14097770 6964339.  1.39 
    ##  6 May 2011   8488650 6975525.  1.12 
    ##  7 Jun 2011  14725405 7056830.  1.28 
    ##  8 Jul 2011   6382930 7019920.  1.28 
    ##  9 Aug 2011   4456670 7031134.  0.583
    ## 10 Sep 2011   3505000 6979419.  0.845
    ## # ℹ 51 more rows
…
### Step 4: Tidy the forecast object

We’ll use the
[`sw_sweep()`](https://business-science.github.io/sweep/reference/sw_sweep.md)
function to coerce a `forecast` into a “tidy” data frame. The
[`sw_sweep()`](https://business-science.github.io/sweep/reference/sw_sweep.md)
function then coerces the `forecast` object into a tibble that can be
sent to `ggplot` for visualization. Let’s inspect the result.

``` r
sw_sweep(fcast_ets, fitted = TRUE)
```

    ## # A tibble: 132 × 7
    ##    index     key       price lo.80 lo.95 hi.80 hi.95
    ##    <yearmon> <chr>     <dbl> <dbl> <dbl> <dbl> <dbl>
    ##  1 Jan 2011  actual  1165365    NA    NA    NA    NA
    ##  2 Feb 2011  actual  5794945    NA    NA    NA    NA
    ##  3 Mar 2011  actual  6811655    NA    NA    NA    NA
    ##  4 Apr 2011  actual 14097770    NA    NA    NA    NA
    ##  5 May 2011  actual  8488650    NA    NA    NA    NA
    ##  6 Jun 2011  actual 14725405    NA    NA    NA    NA
    ##  7 Jul 2011  actual  6382930    NA    NA    NA    NA
    ##  8 Aug 2011  actual  4456670    NA    NA    NA    NA
    ##  9 Sep 2011  actual  3505000    NA    NA    NA    NA
    ## 10 Oct 2011  actual  1548640    NA    NA    NA    NA
    ## # ℹ 122 more rows
…
