Forecasting Time Series Groups in the tidyverse • sweep
…
Bike Sales

We’ll use the bike sales data set, bike_sales, provided
with the sweep package for this tutorial. The
bike_sales data set is a fictional daily order
history that spans 2011 through 2015. It simulates a sales database that
is typical of a business. The customers are the “bike shops” and the
products are the “models”.

bike_sales

## # A tibble: 15,644 × 17
##    order.date order.id order.line quantity price price.ext customer.id
##    <date>        <dbl>      <int>    <dbl> <dbl>     <dbl>       <dbl>
##  1 2011-01-07        1          1        1  6070      6070           2
##  2 2011-01-07        1          2        1  5970      5970           2
##  3 2011-01-10        2          1        1  2770      2770          10
##  4 2011-01-10        2          2        1  5970      5970          10
##  5 2011-01-10        3          1        1 10660     10660           6
##  6 2011-01-10        3          2        1  3200      3200           6
##  7 2011-01-10        3          3        1 12790     12790           6
##  8 2011-01-10        3          4        1  5330      5330           6
##  9 2011-01-10        3          5        1  1570      1570           6
## 10 2011-01-11        4          1        1  4800      4800          22
## # ℹ 15,634 more rows
## # ℹ 10 more variables: bikeshop.name <chr>, bikeshop.city <chr>,
## #   bikeshop.state <chr>, latitude <dbl>, longitude <dbl>, product.id <dbl>,
## #   model <chr>, category.primary <chr>, category.secondary <chr>, frame <chr>
We’ll analyse the monthly sales trends for the bicycle manufacturer.
Let’s transform the data set by aggregating by month.

bike_sales_monthly <- bike_sales %>%
    mutate(month = month(order.date, label = TRUE),
           year  = year(order.date)) %>%
    group_by(year, month) %>%
    summarise(total.qty = sum(quantity)) 

## `summarise()` has grouped output by 'year'. You can override using the
## `.groups` argument.

bike_sales_monthly

## # A tibble: 60 × 3
## # Groups:   year [5]
##     year month total.qty
##    <dbl> <ord>     <dbl>
##  1  2011 Jan         440
##  2  2011 Feb        2017
##  3  2011 Mar        1584
##  4  2011 Apr        4478
##  5  2011 May        4112
##  6  2011 Jun        4251
##  7  2011 Jul        1550
##  8  2011 Aug        1470
##  9  2011 Sep         975
## 10  2011 Oct         697
## # ℹ 50 more rows
…
monthly_qty_by_cat2 <- bike_sales %>%
    mutate(order.month = as_date(as.yearmon(order.date))) %>%
    group_by(category.secondary, order.month) %>%
    summarise(total.qty = sum(quantity))

## `summarise()` has grouped output by 'category.secondary'. You can override
## using the `.groups` argument.

monthly_qty_by_cat2

## # A tibble: 538 × 3
## # Groups:   category.secondary [9]
##    category.secondary order.month total.qty
##    <chr>              <date>          <dbl>
##  1 Cross Country Race 2011-01-01        122
##  2 Cross Country Race 2011-02-01        489
##  3 Cross Country Race 2011-03-01        505
##  4 Cross Country Race 2011-04-01        343
##  5 Cross Country Race 2011-05-01        263
##  6 Cross Country Race 2011-06-01        735
##  7 Cross Country Race 2011-07-01        183
##  8 Cross Country Race 2011-08-01         66
##  9 Cross Country Race 2011-09-01         97
## 10 Cross Country Race 2011-10-01        189
## # ℹ 528 more rows
…
sw_tidy

To get the model parameters for each nested list, we can combine
sw_tidy within the mutate and map
combo. The only real difference is now we unnest the
generated column (named “tidy”). Last, because it’s easier to compare
the model parameters side by side, we add one additional call to
spread() from the tidyr package.

monthly_qty_by_cat2_fit %>%
    mutate(tidy = map(fit.ets, sw_tidy)) %>%
    unnest(tidy) %>%
    spread(key = category.secondary, value = estimate)

## # A tibble: 128 × 13
##    data     data.ts fit.ets term  `Cross Country Race` Cyclocross `Elite Road`
##    <list>   <list>  <list>  <chr>                <dbl>      <dbl>        <dbl>
##  1 <tibble> <ts[…]> <ets>   alpha             0.0398           NA           NA
##  2 <tibble> <ts[…]> <ets>   gamma             0.000101         NA           NA
##  3 <tibble> <ts[…]> <ets>   l               321.               NA           NA
##  4 <tibble> <ts[…]> <ets>   s0                0.503            NA           NA
##  5 <tibble> <ts[…]> <ets>   s1                1.10             NA           NA
##  6 <tibble> <ts[…]> <ets>   s10               0.643            NA           NA
##  7 <tibble> <ts[…]> <ets>   s2                0.375            NA           NA
##  8 <tibble> <ts[…]> <ets>   s3                1.12             NA           NA
##  9 <tibble> <ts[…]> <ets>   s4                0.630            NA           NA
## 10 <tibble> <ts[…]> <ets>   s5                2.06             NA           NA
## # ℹ 118 more rows
## # ℹ 6 more variables: `Endurance Road` <dbl>, `Fat Bike` <dbl>,
## #   `Over Mountain` <dbl>, Sport <dbl>, Trail <dbl>, Triathalon <dbl>
…
## Warning: There were 9 warnings in `mutate()`.
## The first warning was:
## ℹ In argument: `augment = map(fit.ets, sw_augment, timetk_idx = TRUE,
##   rename_index = "date")`.
## ℹ In group 1: `category.secondary = "Cross Country Race"`.
## Caused by warning in `.check_tzones()`:
## ! 'tzone' attributes are inconsistent
## ℹ Run `dplyr::last_dplyr_warnings()` to see the 8 remaining warnings.

augment_fit_ets

## # A tibble: 538 × 8
## # Groups:   category.secondary [9]
##    category.secondary data     data.ts       fit.ets date       .actual .fitted
##    <chr>              <list>   <list>        <list>  <date>       <dbl>   <dbl>
##  1 Cross Country Race <tibble> <ts [60 × 1]> <ets>   2011-01-01     122    373.
##  2 Cross Country Race <tibble> <ts [60 × 1]> <ets>   2011-02-01     489    201.
##  3 Cross Country Race <tibble> <ts [60 × 1]> <ets>   2011-03-01     505    465.
##  4 Cross Country Race <tibble> <ts [60 × 1]> <ets>   2011-04-01     343    161.
##  5 Cross Country Race <tibble> <ts [60 × 1]> <ets>   2011-05-01     263    567.
##  6 Cross Country Race <tibble> <ts [60 × 1]> <ets>   2011-06-01     735    296.
##  7 Cross Country Race <tibble> <ts [60 × 1]> <ets>   2011-07-01     183    741.
##  8 Cross Country Race <tibble> <ts [60 × 1]> <ets>   2011-08-01      66    220.
##  9 Cross Country Race <tibble> <ts [60 × 1]> <ets>   2011-09-01      97    381.
## 10 Cross Country Race <tibble> <ts [60 × 1]> <ets>   2011-10-01     189    123.
## # ℹ 528 more rows
## # ℹ 1 more variable: .resid <dbl>
…
monthly_qty_by_cat2_fit %>%
    mutate(decomp = map(fit.ets, sw_tidy_decomp, timetk_idx = TRUE, rename_index = "date")) %>%
    unnest(decomp)

## Warning: There were 9 warnings in `mutate()`.
## The first warning was:
## ℹ In argument: `decomp = map(fit.ets, sw_tidy_decomp, timetk_idx = TRUE,
##   rename_index = "date")`.
## ℹ In group 1: `category.secondary = "Cross Country Race"`.
## Caused by warning in `.check_tzones()`:
## ! 'tzone' attributes are inconsistent
## ℹ Run `dplyr::last_dplyr_warnings()` to see the 8 remaining warnings.

## # A tibble: 538 × 9
## # Groups:   category.secondary [9]
##    category.secondary data     data.ts fit.ets date       observed level season
##    <chr>              <list>   <list>  <list>  <date>        <dbl> <dbl>  <dbl>
##  1 Cross Country Race <tibble> <ts[…]> <ets>   2011-01-01      122  313.  1.16 
##  2 Cross Country Race <tibble> <ts[…]> <ets>   2011-02-01      489  331.  0.643
##  3 Cross Country Race <tibble> <ts[…]> <ets>   2011-03-01      505  332.  1.41 
##  4 Cross Country Race <tibble> <ts[…]> <ets>   2011-04-01      343  347.  0.487
##  5 Cross Country Race <tibble> <ts[…]> <ets>   2011-05-01      263  339.  1.64 
##  6 Cross Country Race <tibble> <ts[…]> <ets>   2011-06-01      735  359.  0.873
##  7 Cross Country Race <tibble> <ts[…]> <ets>   2011-07-01      183  348.  2.06 
##  8 Cross Country Race <tibble> <ts[…]> <ets>   2011-08-01       66  339.  0.630
##  9 Cross Country Race <tibble> <ts[…]> <ets>   2011-09-01       97  329.  1.12 
## 10 Cross Country Race <tibble> <ts[…]> <ets>   2011-10-01      189  336.  0.375
## # ℹ 528 more rows
## # ℹ 1 more variable: slope <dbl>
…
## Warning: There were 9 warnings in `mutate()`.
## The first warning was:
## ℹ In argument: `sweep = map(fcast.ets, sw_sweep, fitted = FALSE, timetk_idx =
##   TRUE)`.
## ℹ In group 1: `category.secondary = "Cross Country Race"`.
## Caused by warning in `.check_tzones()`:
## ! 'tzone' attributes are inconsistent
## ℹ Run `dplyr::last_dplyr_warnings()` to see the 8 remaining warnings.

monthly_qty_by_cat2_fcast_tidy

## # A tibble: 646 × 12
## # Groups:   category.secondary [9]
##    category.secondary data     data.ts       fit.ets fcast.ets  index      key  
##    <chr>              <list>   <list>        <list>  <list>     <date>     <chr>
##  1 Cross Country Race <tibble> <ts [60 × 1]> <ets>   <forecast> 2011-01-01 actu…
##  2 Cross Country Race <tibble> <ts [60 × 1]> <ets>   <forecast> 2011-02-01 actu…
##  3 Cross Country Race <tibble> <ts [60 × 1]> <ets>   <forecast> 2011-03-01 actu…
##  4 Cross Country Race <tibble> <ts [60 × 1]> <ets>   <forecast> 2011-04-01 actu…
##  5 Cross Country Race <tibble> <ts [60 × 1]> <ets>   <forecast> 2011-05-01 actu…
##  6 Cross Country Race <tibble> <ts [60 × 1]> <ets>   <forecast> 2011-06-01 actu…
##  7 Cross Country Race <tibble> <ts [60 × 1]> <ets>   <forecast> 2011-07-01 actu…
##  8 Cross Country Race <tibble> <ts [60 × 1]> <ets>   <forecast> 2011-08-01 actu…
##  9 Cross Country Race <tibble> <ts [60 × 1]> <ets>   <forecast> 2011-09-01 actu…
## 10 Cross Country Race <tibble> <ts [60 × 1]> <ets>   <forecast> 2011-10-01 actu…
## # ℹ 636 more rows
## # ℹ 5 more variables: total.qty <dbl>, lo.80 <dbl>, lo.95 <dbl>, hi.80 <dbl>,
## #   hi.95 <dbl>
…
