…
## Bike Sales

We’ll use the bike sales data set, `bike_sales`, provided with the
`sweep` package for this tutorial. The `bike_sales` data set is a
*fictional* daily order history that spans 2011 through 2015. It
simulates a sales database that is typical of a business. The customers
are the “bike shops” and the products are the “models”.

``` r
bike_sales
```

    ## # A tibble: 15,644 × 17
    ##    order.date order.id order.line quantity price price.ext customer.id
    ##    <date>        <dbl>      <int>    <dbl> <dbl>     <dbl>       <dbl>
    ##  1 2011-01-07        1          1        1  6070      6070           2
    ##  2 2011-01-07        1          2        1  5970      5970           2
    ##  3 2011-01-10        2          1        1  2770      2770          10
    ##  4 2011-01-10        2          2        1  5970      5970          10
    ##  5 2011-01-10        3          1        1 10660     10660           6
    ##  6 2011-01-10        3          2        1  3200      3200           6
    ##  7 2011-01-10        3          3        1 12790     12790           6
    ##  8 2011-01-10        3          4        1  5330      5330           6
    ##  9 2011-01-10        3          5        1  1570      1570           6
    ## 10 2011-01-11        4          1        1  4800      4800          22
    ## # ℹ 15,634 more rows
    ## # ℹ 10 more variables: bikeshop.name <chr>, bikeshop.city <chr>,
    ## #   bikeshop.state <chr>, latitude <dbl>, longitude <dbl>, product.id <dbl>,
    ## #   model <chr>, category.primary <chr>, category.secondary <chr>, frame <chr>
…
    ## `summarise()` has regrouped the output.
    ## ℹ Summaries were computed grouped by year and month.
    ## ℹ Output is grouped by year.
    ## ℹ Use `summarise(.groups = "drop_last")` to silence this message.
    ## ℹ Use `summarise(.by = c(year, month))` for per-operation grouping
    ##   (`?dplyr::dplyr_by`) instead.

``` r
bike_sales_monthly
```

    ## # A tibble: 60 × 3
    ## # Groups:   year [5]
    ##     year month total.qty
    ##    <dbl> <ord>     <dbl>
    ##  1  2011 Jan         440
    ##  2  2011 Feb        2017
    ##  3  2011 Mar        1584
    ##  4  2011 Apr        4478
    ##  5  2011 May        4112
    ##  6  2011 Jun        4251
    ##  7  2011 Jul        1550
    ##  8  2011 Aug        1470
    ##  9  2011 Sep         975
    ## 10  2011 Oct         697
    ## # ℹ 50 more rows
…
    ## `summarise()` has regrouped the output.
    ## ℹ Summaries were computed grouped by category.secondary and order.month.
    ## ℹ Output is grouped by category.secondary.
    ## ℹ Use `summarise(.groups = "drop_last")` to silence this message.
    ## ℹ Use `summarise(.by = c(category.secondary, order.month))` for per-operation
    ##   grouping (`?dplyr::dplyr_by`) instead.

``` r
monthly_qty_by_cat2
```

    ## # A tibble: 538 × 3
    ## # Groups:   category.secondary [9]
    ##    category.secondary order.month total.qty
    ##    <chr>              <date>          <dbl>
    ##  1 Cross Country Race 2011-01-01        122
    ##  2 Cross Country Race 2011-02-01        489
    ##  3 Cross Country Race 2011-03-01        505
    ##  4 Cross Country Race 2011-04-01        343
    ##  5 Cross Country Race 2011-05-01        263
    ##  6 Cross Country Race 2011-06-01        735
    ##  7 Cross Country Race 2011-07-01        183
    ##  8 Cross Country Race 2011-08-01         66
    ##  9 Cross Country Race 2011-09-01         97
    ## 10 Cross Country Race 2011-10-01        189
    ## # ℹ 528 more rows
…
``` r
monthly_qty_by_cat2_fit %>%
    mutate(tidy = map(fit.ets, sw_tidy)) %>%
    unnest(tidy) %>%
    spread(key = category.secondary, value = estimate)
```

    ## # A tibble: 128 × 13
    ##    data              data.ts fit.ets    term  `Cross Country Race` Cyclocross
    ##    <list>            <list>  <list>     <chr>                <dbl>      <dbl>
    ##  1 <tibble [60 × 2]> <ts[…]> <fc_model> alpha             0.0398           NA
    ##  2 <tibble [60 × 2]> <ts[…]> <fc_model> gamma             0.000101         NA
    ##  3 <tibble [60 × 2]> <ts[…]> <fc_model> l               321.               NA
    ##  4 <tibble [60 × 2]> <ts[…]> <fc_model> s0                0.503            NA
    ##  5 <tibble [60 × 2]> <ts[…]> <fc_model> s1                1.10             NA
    ##  6 <tibble [60 × 2]> <ts[…]> <fc_model> s10               0.643            NA
    ##  7 <tibble [60 × 2]> <ts[…]> <fc_model> s2                0.375            NA
    ##  8 <tibble [60 × 2]> <ts[…]> <fc_model> s3                1.12             NA
    ##  9 <tibble [60 × 2]> <ts[…]> <fc_model> s4                0.630            NA
    ## 10 <tibble [60 × 2]> <ts[…]> <fc_model> s5                2.06             NA
    ## # ℹ 118 more rows
    ## # ℹ 7 more variables: `Elite Road` <dbl>, `Endurance Road` <dbl>,
    ## #   `Fat Bike` <dbl>, `Over Mountain` <dbl>, Sport <dbl>, Trail <dbl>,
    ## #   Triathalon <dbl>
…
    ## Warning: There were 9 warnings in `mutate()`.
    ## The first warning was:
    ## ℹ In argument: `augment = map(fit.ets, sw_augment, timetk_idx = TRUE,
    ##   rename_index = "date")`.
    ## ℹ In group 1: `category.secondary = "Cross Country Race"`.
    ## Caused by warning in `.check_tzones()`:
    ## ! 'tzone' attributes are inconsistent
    ## ℹ Run `dplyr::last_dplyr_warnings()` to see the 8 remaining warnings.

``` r
augment_fit_ets
```

    ## # A tibble: 538 × 8
    ## # Groups:   category.secondary [9]
    ##    category.secondary data     data.ts fit.ets    date       .actual .fitted
    ##    <chr>              <list>   <list>  <list>     <date>       <dbl>   <dbl>
    ##  1 Cross Country Race <tibble> <ts[…]> <fc_model> 2011-01-01     122    373.
    ##  2 Cross Country Race <tibble> <ts[…]> <fc_model> 2011-02-01     489    201.
    ##  3 Cross Country Race <tibble> <ts[…]> <fc_model> 2011-03-01     505    465.
    ##  4 Cross Country Race <tibble> <ts[…]> <fc_model> 2011-04-01     343    161.
    ##  5 Cross Country Race <tibble> <ts[…]> <fc_model> 2011-05-01     263    567.
    ##  6 Cross Country Race <tibble> <ts[…]> <fc_model> 2011-06-01     735    296.
    ##  7 Cross Country Race <tibble> <ts[…]> <fc_model> 2011-07-01     183    741.
    ##  8 Cross Country Race <tibble> <ts[…]> <fc_model> 2011-08-01      66    220.
    ##  9 Cross Country Race <tibble> <ts[…]> <fc_model> 2011-09-01      97    381.
    ## 10 Cross Country Race <tibble> <ts[…]> <fc_model> 2011-10-01     189    123.
    ## # ℹ 528 more rows
    ## # ℹ 1 more variable: .resid <dbl>
…
    ## Warning: There were 9 warnings in `mutate()`.
    ## The first warning was:
    ## ℹ In argument: `decomp = map(fit.ets, sw_tidy_decomp, timetk_idx = TRUE,
    ##   rename_index = "date")`.
    ## ℹ In group 1: `category.secondary = "Cross Country Race"`.
    ## Caused by warning in `.check_tzones()`:
    ## ! 'tzone' attributes are inconsistent
    ## ℹ Run `dplyr::last_dplyr_warnings()` to see the 8 remaining warnings.

    ## # A tibble: 538 × 9
    ## # Groups:   category.secondary [9]
    ##    category.secondary data     data.ts fit.ets    date       observed level
    ##    <chr>              <list>   <list>  <list>     <date>        <dbl> <dbl>
    ##  1 Cross Country Race <tibble> <ts[…]> <fc_model> 2011-01-01      122  313.
    ##  2 Cross Country Race <tibble> <ts[…]> <fc_model> 2011-02-01      489  331.
    ##  3 Cross Country Race <tibble> <ts[…]> <fc_model> 2011-03-01      505  332.
    ##  4 Cross Country Race <tibble> <ts[…]> <fc_model> 2011-04-01      343  347.
    ##  5 Cross Country Race <tibble> <ts[…]> <fc_model> 2011-05-01      263  339.
    ##  6 Cross Country Race <tibble> <ts[…]> <fc_model> 2011-06-01      735  359.
    ##  7 Cross Country Race <tibble> <ts[…]> <fc_model> 2011-07-01      183  348.
    ##  8 Cross Country Race <tibble> <ts[…]> <fc_model> 2011-08-01       66  339.
    ##  9 Cross Country Race <tibble> <ts[…]> <fc_model> 2011-09-01       97  329.
    ## 10 Cross Country Race <tibble> <ts[…]> <fc_model> 2011-10-01      189  336.
    ## # ℹ 528 more rows
    ## # ℹ 2 more variables: season <dbl>, slope <dbl>
…
    ## Warning: There were 9 warnings in `mutate()`.
    ## The first warning was:
    ## ℹ In argument: `sweep = map(fcast.ets, sw_sweep, fitted = FALSE, timetk_idx =
    ##   TRUE)`.
    ## ℹ In group 1: `category.secondary = "Cross Country Race"`.
    ## Caused by warning in `.check_tzones()`:
    ## ! 'tzone' attributes are inconsistent
    ## ℹ Run `dplyr::last_dplyr_warnings()` to see the 8 remaining warnings.

``` r
monthly_qty_by_cat2_fcast_tidy
```

    ## # A tibble: 646 × 12
    ## # Groups:   category.secondary [9]
    ##    category.secondary data     data.ts fit.ets    fcast.ets  index      key   
    ##    <chr>              <list>   <list>  <list>     <list>     <date>     <chr> 
    ##  1 Cross Country Race <tibble> <ts[…]> <fc_model> <forecast> 2011-01-01 actual
    ##  2 Cross Country Race <tibble> <ts[…]> <fc_model> <forecast> 2011-02-01 actual
    ##  3 Cross Country Race <tibble> <ts[…]> <fc_model> <forecast> 2011-03-01 actual
    ##  4 Cross Country Race <tibble> <ts[…]> <fc_model> <forecast> 2011-04-01 actual
    ##  5 Cross Country Race <tibble> <ts[…]> <fc_model> <forecast> 2011-05-01 actual
    ##  6 Cross Country Race <tibble> <ts[…]> <fc_model> <forecast> 2011-06-01 actual
    ##  7 Cross Country Race <tibble> <ts[…]> <fc_model> <forecast> 2011-07-01 actual
    ##  8 Cross Country Race <tibble> <ts[…]> <fc_model> <forecast> 2011-08-01 actual
    ##  9 Cross Country Race <tibble> <ts[…]> <fc_model> <forecast> 2011-09-01 actual
    ## 10 Cross Country Race <tibble> <ts[…]> <fc_model> <forecast> 2011-10-01 actual
    ## # ℹ 636 more rows
    ## # ℹ 5 more variables: total.qty <dbl>, lo.80 <dbl>, lo.95 <dbl>, hi.80 <dbl>,
    ## #   hi.95 <dbl>
…
