…
To start, we’ll build a monthly revenue series from the `bike_sales`
data set that ships with `sweep`. To keep the missing-value cleanup step
in the example, we’ll intentionally blank a few monthly observations.

``` r
sales_monthly_raw <- bike_sales %>%
    dplyr::mutate(date = lubridate::floor_date(order.date, unit = "month")) %>%
    dplyr::group_by(date) %>%
    dplyr::summarise(price = sum(price.ext), .groups = "drop") %>%
    dplyr::mutate(price = dplyr::if_else(dplyr::row_number() %in% c(7L, 19L, 38L), NA_real_, price))
sales_monthly_raw
```

    ## # A tibble: 60 × 2
    ##    date          price
    ##    <date>        <dbl>
    ##  1 2011-01-01  1165365
    ##  2 2011-02-01  5794945
    ##  3 2011-03-01  6811655
    ##  4 2011-04-01 14097770
    ##  5 2011-05-01  8488650
    ##  6 2011-06-01 14725405
    ##  7 2011-07-01       NA
    ##  8 2011-08-01  4456670
    ##  9 2011-09-01  3505000
    ## 10 2011-10-01  1548640
    ## # ℹ 50 more rows
…
    ## # A tibble: 3 × 5
    ##   f          params           fit        fcast      sweep            
    ##   <chr>      <list>           <list>     <list>     <list>           
    ## 1 auto.arima <named list [1]> <fc_model> <forecast> <tibble [26 × 7]>
    ## 2 ets        <named list [2]> <fc_model> <forecast> <tibble [26 × 7]>
    ## 3 bats       <named list [1]> <fc_model> <forecast> <tibble [26 × 7]>

We can unnest the “sweep” column to get the results of all three models.

``` r
models_tbl_fcast_tidy %>%
    unnest(sweep)
```

    ## # A tibble: 78 × 11
    ##    f      params       fit        fcast      date       key    price lo.80 lo.95
    ##    <chr>  <list>       <list>     <list>     <date>     <chr>  <dbl> <dbl> <dbl>
    ##  1 auto.… <named list> <fc_model> <forecast> 2011-03-01 actu… 6.81e6    NA    NA
    ##  2 auto.… <named list> <fc_model> <forecast> 2011-06-01 actu… 1.47e7    NA    NA
    ##  3 auto.… <named list> <fc_model> <forecast> 2011-09-01 actu… 3.51e6    NA    NA
    ##  4 auto.… <named list> <fc_model> <forecast> 2011-12-01 actu… 4.08e6    NA    NA
    ##  5 auto.… <named list> <fc_model> <forecast> 2012-03-01 actu… 2.52e7    NA    NA
    ##  6 auto.… <named list> <fc_model> <forecast> 2012-06-01 actu… 6.39e6    NA    NA
    ##  7 auto.… <named list> <fc_model> <forecast> 2012-09-01 actu… 9.68e6    NA    NA
    ##  8 auto.… <named list> <fc_model> <forecast> 2012-12-01 actu… 2.71e6    NA    NA
    ##  9 auto.… <named list> <fc_model> <forecast> 2013-03-01 actu… 1.56e7    NA    NA
    ## 10 auto.… <named list> <fc_model> <forecast> 2013-06-01 actu… 1.52e7    NA    NA
    ## # ℹ 68 more rows
    ## # ℹ 2 more variables: hi.80 <dbl>, hi.95 <dbl>
…
